…
``` r
as.tibble(basedata_koi)
```

    ## # A tibble: 45 x 2
    ##    Address                                                    postcode    
    ##    <chr>                                                      <chr>       
    ##  1 Jurong East MRT 10 Jurong East Street 12, #01-09, Singapo~ Singapore 6~
    ##  2 Raffles City 252 North Bridge Road #B1-71,Singapore 17910~ Singapore 1~
    ##  3 HarbourFront Centre 1 Maritime Square #01-67A, Harbourfro~ Singapore 0~
    ##  4 Tampines Mall 4 Tampines Central 5 #02-K3B, Tampines Mall~ Singapore 5~
    ##  5 Novena Square 238 Thomson Road #01-61, Novena Square S(30~ Singapore 3~
    ##  6 Choa Chu Kang MRT 10 Choa Chu Kang Avenue 4 #01-04, Choa ~ Singapore 6~
    ##  7 Hillion Mall 17 Petir Road #B2-53, Hillion Mall S(678278)  Singapore 6~
    ##  8 Jurong Point 1 Jurong West Central 2 #02-41C, Jurong Poin~ Singapore 6~
    ##  9 The Arcade 11 Collyer Quay #01-12, The Arcade S(049317)    Singapore 0~
    ## 10 Woodlands MRT 30 Woodlands Avenue 2 #01-16, Woodlands MRT~ Singapore 7~
    ## # ... with 35 more rows

``` r
as.tibble(basedata_mac)
```

    ## # A tibble: 136 x 2
    ##    Address                                                     postcode   
    ##    <chr>                                                       <chr>      
    ##  1 McDonalds Keat Hong 818 Choa Chu Kang Avenue 1 #01-02 Sing~ Singapore ~
    ##  2 McDonald’s *SCAPE Park 2 Orchard Link #02-43 *SCAPE Singap~ Singapore ~
    ##  3 McDonald’s @ Resorts World Sentosa 8 Sentosa Gateway, #B1-~ Singapore ~
    ##  4 McDonald’s Admiralty 678A Woodlands Avenue 6 #01-05 Singap~ Singapore ~
    ##  5 McDonald’s Alocassia 383 Bukit Timah Road #01-09B Alocassi~ Singapore ~
    ##  6 McDonald’s Ang Mo Kio 51 Ang Mo Kio Avenue 3 #01-04 51 @ A~ Singapore ~
    ##  7 McDonald’s Ang Mo Kio 4 163 Ang Mo Kio Avenue 4 #01-438 Si~ Singapore ~
    ##  8 McDonald’s Ang Mo Kio Ave 10 448 Ang Mo Kio Avenue 10 #01-~ Singapore ~
    ##  9 McDonald’s Ang Mo Kio Park 10 Ang Mo Kio Street 12 Singapo~ Singapore ~
    ## 10 McDonald’s Balestier Shaw Plaza 360 Balestier Rd #01-10 Sh~ Singapore ~
    ## # ... with 126 more rows
…
